<?xml version="1.0" encoding="UTF-8"?>
<testsuite name="GetAllUsersApiTests" tests="1" skipped="0" failures="0" errors="0" timestamp="2023-01-02T11:39:20" hostname="TestVagrants-MacBook-Pro.local" time="2.354">
  <properties/>
  <testcase name="getAllUsers" classname="GetAllUsersApiTests" time="2.354"/>
  <system-out><![CDATA[{
    "meta": {
        "pagination": {
            "total": 4387,
            "pages": 439,
            "page": 1,
            "limit": 10,
            "links": {
                "previous": null,
                "current": "https://gorest.co.in/public/v1/users?page=1",
                "next": "https://gorest.co.in/public/v1/users?page=2"
            }
        }
    },
    "data": [
        {
            "id": 4831,
            "name": "Dhana Jha",
            "email": "jha_dhana@ledner.co",
            "gender": "female",
            "status": "active"
        },
        {
            "id": 4829,
            "name": "The Hon. Ahilya Tagore",
            "email": "hon_the_ahilya_tagore@runolfsdottir.biz",
            "gender": "male",
            "status": "active"
        },
        {
            "id": 4828,
            "name": "Gautam Gill",
            "email": "gautam_gill@altenwerth-koepp.com",
            "gender": "male",
            "status": "active"
        },
        {
            "id": 4827,
            "name": "Atmanand Sinha",
            "email": "sinha_atmanand@bednar.co",
            "gender": "male",
            "status": "active"
        },
        {
            "id": 4826,
            "name": "Abani Namboothiri",
            "email": "abani_namboothiri@miller.biz",
            "gender": "male",
            "status": "active"
        },
        {
            "id": 4825,
            "name": "Kin Khatri",
            "email": "kin_khatri@schaden-adams.io",
            "gender": "male",
            "status": "active"
        },
        {
            "id": 4823,
            "name": "Jagdish Patel",
            "email": "patel_jagdish@ziemann.com",
            "gender": "male",
            "status": "active"
        },
        {
            "id": 4821,
            "name": "Meenakshi Adiga",
            "email": "meenakshi_adiga@howell.com",
            "gender": "male",
            "status": "inactive"
        },
        {
            "id": 4820,
            "name": "Chandraketu Bhat",
            "email": "chandraketu_bhat@langworth.name",
            "gender": "male",
            "status": "inactive"
        },
        {
            "id": 4819,
            "name": "Chetan Gill",
            "email": "chetan_gill@johns-dare.io",
            "gender": "female",
            "status": "inactive"
        }
    ]
}
]]></system-out>
  <system-err><![CDATA[]]></system-err>
</testsuite>
